{
  "results": [
    {
      "vote_count": 154,
      "id": 438808,
      "video": false,
      "vote_average": 6,
      "title": "White Boy Rick",
      "popularity": 20.757,
      "poster_path": "/l15r2aLqdifXM9GFsJLkOq5Y8SI.jpg",
      "original_language": "en",
      "original_title": "White Boy Rick",
      "genre_ids": [
        18,
        80
      ],
      "backdrop_path": "/4Y0eLVkUwThX9pt1uqVoWoCtvcl.jpg",
      "adult": false,
      "overview": "The story of teenager, Richard Wershe Jr., who became an undercover informant for the police during the 1980s and was ultimately arrested for drug-trafficking and sentenced to life in prison.",
      "release_date": "2018-09-14"
    },
    {
      "vote_count": 2,
      "id": 445629,
      "video": false,
      "vote_average": 10,
      "title": "Fighting with My Family",
      "popularity": 20.645,
      "poster_path": "/3TZCBAdKQiz0cGKGEjZiyZUA01O.jpg",
      "original_language": "en",
      "original_title": "Fighting with My Family",
      "genre_ids": [
        35,
        18
      ],
      "backdrop_path": "/mYKP6qcDUimVMAHQWLOuDHjO19S.jpg",
      "adult": false,
      "overview": "Born into a tight-knit wrestling family, Paige and her brother Zak are ecstatic when they get the once-in-a-lifetime opportunity to try out for the WWE. But when only Paige earns a spot in the competitive training program, she must leave her loved ones behind and face this new cutthroat world alone. Paige's journey pushes her to dig deep and ultimately prove to the world that what makes her different is the very thing that can make her a star.",
      "release_date": "2019-02-14"
    },
    {
      "vote_count": 168,
      "id": 472451,
      "video": false,
      "vote_average": 7.3,
      "title": "Boy Erased",
      "popularity": 20.169,
      "poster_path": "/oZbhTdi0ZQY7iiSQ0L7h3ya6NDF.jpg",
      "original_language": "en",
      "original_title": "Boy Erased",
      "genre_ids": [
        18
      ],
      "backdrop_path": "/2ePViXIOnifrugvnjlFxzmvjwKL.jpg",
      "adult": false,
      "overview": "Jared, the son of a Baptist pastor in a small American town, is outed to his parents at age 19. Jared is faced with an ultimatum: attend a gay conversion therapy program – or be permanently exiled and shunned by his family, friends, and faith.",
      "release_date": "2018-09-24"
    },
    {
      "vote_count": 112,
      "id": 491418,
      "video": false,
      "vote_average": 7.7,
      "title": "Instant Family",
      "popularity": 18.91,
      "poster_path": "/4Y1AlIP3SIOTje3ky9p68XhQmHU.jpg",
      "original_language": "en",
      "original_title": "Instant Family",
      "genre_ids": [
        35,
        18,
        10751
      ],
      "backdrop_path": "/hgESQ2sK21j22Yode4w99jfwj44.jpg",
      "adult": false,
      "overview": "When Pete and Ellie decide to start a family, they stumble into the world of foster care adoption. They hope to take in one small child but when they meet three siblings, including a rebellious 15 year old girl, they find themselves speeding from zero to three kids overnight.",
      "release_date": "2018-11-16"
    },
    {
      "vote_count": 13,
      "id": 484437,
      "video": false,
      "vote_average": 0,
      "title": "The Hole in the Ground",
      "popularity": 18.64,
      "poster_path": "/4rEU3xFU9vj0qkk0oRAyHF9CzQO.jpg",
      "original_language": "en",
      "original_title": "The Hole in the Ground",
      "genre_ids": [],
      "backdrop_path": "/6mwMpsP2lhFBhuULFNHBSCVC7w3.jpg",
      "adult": false,
      "overview": "Trying to escape her broken past, Sarah O’Neill is building a new life on the fringes of a backwood rural town with her young son Chris. A terrifying encounter with a mysterious neighbour shatters her fragile security, throwing Sarah into a spiralling nightmare of paranoia and mistrust, as she tries to uncover if the disturbing changes in her little boy are connected to an ominous sinkhole buried deep in the forest that borders their home.",
      "release_date": "2019-03-01"
    },
    {
      "vote_count": 46,
      "id": 495673,
      "video": false,
      "vote_average": 5.2,
      "title": "Belleville Cop",
      "popularity": 18.381,
      "poster_path": "/sYLgx2Ywd3GAH8LvsWUx5JEMU2q.jpg",
      "original_language": "fr",
      "original_title": "Le Flic de Belleville",
      "genre_ids": [
        35,
        28
      ],
      "backdrop_path": "/8iHlvMbtzXzswf0GDglwM7kKyqv.jpg",
      "adult": false,
      "overview": "When a childhood friend from Miami gets killed after he comes to warn of encroaching drug gangs, Baaba moves to Miami and teams up with a local officer to bring down the criminals.",
      "release_date": "2018-10-17"
    },
    {
      "vote_count": 110,
      "id": 437586,
      "video": false,
      "vote_average": 7.5,
      "title": "Mid90s",
      "popularity": 18.176,
      "poster_path": "/3HkP9ale8G43vqOF3F6wt5h86RN.jpg",
      "original_language": "en",
      "original_title": "Mid90s",
      "genre_ids": [
        35,
        18
      ],
      "backdrop_path": "/AniELE0qB56s91edib9Hn0ufwqh.jpg",
      "adult": false,
      "overview": "Stevie is a sweet 13-year-old about to explode. His mom is loving and attentive, but a little too forthcoming about her romantic life. His big brother is a taciturn and violent bully. So Stevie searches his working-class Los Angeles suburb for somewhere to belong. He finds it at the Motor Avenue skate shop.",
      "release_date": "2018-10-19"
    },
    {
      "vote_count": 263,
      "id": 401545,
      "video": false,
      "vote_average": 6.6,
      "title": "Everybody Knows",
      "popularity": 15.133,
      "poster_path": "/um7ikmficsPsiOZwp7VkKdSnBs7.jpg",
      "original_language": "es",
      "original_title": "Todos lo saben",
      "genre_ids": [
        18,
        80,
        9648,
        53
      ],
      "backdrop_path": "/gJqQxpe03aIRZZjy8A4nbLtBpch.jpg",
      "adult": false,
      "overview": "Laura, a Spanish woman living in Buenos Aires, returns to her hometown outside Madrid with her Argentinian husband and children. However, the trip is upset by unexpected events that bring secrets into the open.",
      "release_date": "2018-05-09"
    },
    {
      "vote_count": 134,
      "id": 458005,
      "video": false,
      "vote_average": 6,
      "title": "Zoe",
      "popularity": 15.126,
      "poster_path": "/cSzwzCEOk4AM0w6Br8J6mDl7HzR.jpg",
      "original_language": "en",
      "original_title": "Zoe",
      "genre_ids": [
        878,
        10749,
        53
      ],
      "backdrop_path": "/7RIYU3mMHiK0QzMP8hG6IX4Sntl.jpg",
      "adult": false,
      "overview": "Two colleagues at a revolutionary research lab design technology to improve and perfect romantic relationships. As their work progresses, their discoveries become more profound.",
      "release_date": "2018-07-19"
    },
    {
      "vote_count": 187,
      "id": 454652,
      "video": false,
      "vote_average": 7,
      "title": "Colette",
      "popularity": 14.952,
      "poster_path": "/pGiUIkcTOEn2CwE5CUBFxWkcyxO.jpg",
      "original_language": "en",
      "original_title": "Colette",
      "genre_ids": [
        18,
        36
      ],
      "backdrop_path": "/um7DVcGyLvImgAdn5JGpjIudYSV.jpg",
      "adult": false,
      "overview": "After marrying a successful Parisian writer known commonly as Willy, Sidonie-Gabrielle Colette is transplanted from her childhood home in rural France to the intellectual and artistic splendor of Paris. Soon after, Willy convinces Colette to ghostwrite for him. She pens a semi-autobiographical novel about a witty and brazen country girl named Claudine, sparking a bestseller and a cultural sensation. After its success, Colette and Willy become the talk of Paris and their adventures inspire additional Claudine novels.",
      "release_date": "2018-09-21"
    },
    {
      "vote_count": 109,
      "id": 505436,
      "video": false,
      "vote_average": 6,
      "title": "Qu'est-ce qu'on a encore fait au bon Dieu ?",
      "popularity": 12.611,
      "poster_path": "/uT9FhaKYzR8XQg0etoPiqQxaMj8.jpg",
      "original_language": "fr",
      "original_title": "Qu'est-ce qu'on a encore fait au bon Dieu ?",
      "genre_ids": [
        35,
        18
      ],
      "backdrop_path": "/mCb3FjW9p2Fl1QZU69uqt5r7n2N.jpg",
      "adult": false,
      "overview": "",
      "release_date": "2019-01-30"
    },
    {
      "vote_count": 601,
      "id": 483184,
      "video": false,
      "vote_average": 7.8,
      "title": "Dogman",
      "popularity": 12.465,
      "poster_path": "/pqaNWWkcEmcdxkMrUnoxI3Viw4h.jpg",
      "original_language": "it",
      "original_title": "Dogman",
      "genre_ids": [
        80,
        18,
        53
      ],
      "backdrop_path": "/zquMDqlhGYXdXiteRguQSlVGznx.jpg",
      "adult": false,
      "overview": "Marcello, a small and gentle dog groomer, finds himself involved in a dangerous relationship of subjugation with Simone, a former violent boxer who terrorizes the entire neighborhood. In an effort to reaffirm his dignity, Marcello will submit to an unexpected act of vengeance.",
      "release_date": "2018-05-17"
    },
    {
      "vote_count": 49,
      "id": 449459,
      "video": false,
      "vote_average": 5.6,
      "title": "The Vanishing",
      "popularity": 12.454,
      "poster_path": "/5HKn2CecRi2OlyC3T6FZz4QqkW5.jpg",
      "original_language": "en",
      "original_title": "The Vanishing",
      "genre_ids": [
        53,
        18,
        9648
      ],
      "backdrop_path": "/jK4m8gjLT5D2PNwoC0jJ0dGmWMu.jpg",
      "adult": false,
      "overview": "Three lighthouse keepers on an uninhabited island off the coast of Scotland discover something that isn't theirs to keep.",
      "release_date": "2018-11-15"
    },
    {
      "vote_count": 3,
      "id": 509730,
      "video": false,
      "vote_average": 8,
      "title": "Corgi",
      "popularity": 12.115,
      "poster_path": "/pNvAtrMjC68vy0Xt8KJUnVct3io.jpg",
      "original_language": "en",
      "original_title": "The Queen's Corgi",
      "genre_ids": [
        16,
        35,
        10751
      ],
      "backdrop_path": "/1fXhqB3Fet6o54YwLcCBrLLkuOf.jpg",
      "adult": false,
      "overview": "\"The Queen's Corgi\" is about the adventure of Rex, the British monarch's most beloved dog, who loses track of his mistress and stumbles across a clan with dogs of all kinds confronting and fighting each other. During his epic journey to return to the queen, Rex falls in love and discovers his true self.",
      "release_date": "2019-02-13"
    },
    {
      "vote_count": 210,
      "id": 432616,
      "video": false,
      "vote_average": 7.5,
      "title": "Promise at Dawn",
      "popularity": 10.983,
      "poster_path": "/vkRt22pxIow6dtDLyS2sJKJIL3b.jpg",
      "original_language": "fr",
      "original_title": "La Promesse de l'aube",
      "genre_ids": [
        18,
        10749
      ],
      "backdrop_path": "/fGMlVjXOACNL9xylvOWcNokHpC8.jpg",
      "adult": false,
      "overview": "From his childhood in Poland to his adolescence in Nice to his years as a student in Paris and his tough training as a pilot during World War II, this tragi-comedy tells the romantic story of Romain Gary, one of the most famous French novelists and sole writer to have won the Goncourt Prize for French literature two times.",
      "release_date": "2017-12-20"
    },
    {
      "vote_count": 15,
      "id": 375785,
      "video": false,
      "vote_average": 7,
      "title": "Then Came You",
      "popularity": 10.678,
      "poster_path": "/9hIA3dgyOWj1MLXYrJ7SZ6lckM9.jpg",
      "original_language": "en",
      "original_title": "Then Came You",
      "genre_ids": [
        18,
        12,
        35
      ],
      "backdrop_path": "/r9X6Yzbr1ypmFoeh7SgH86GqKO.jpg",
      "adult": false,
      "overview": "An American hypochondriac who is working as a baggage handler at the Cape Town airport is forced to confront his fears when a British teenager with a terminal illness enlists him to help her carry out her eccentric bucket list.",
      "release_date": "2019-02-01"
    },
    {
      "vote_count": 85,
      "id": 492452,
      "video": false,
      "vote_average": 6.9,
      "title": "Ben Is Back",
      "popularity": 9.882,
      "poster_path": "/eSPiprXuWqwMGi6t8BkdiTz9Ou3.jpg",
      "original_language": "en",
      "original_title": "Ben Is Back",
      "genre_ids": [
        18
      ],
      "backdrop_path": "/hcXjo7p7JnxXV2b10q54g7KB7YB.jpg",
      "adult": false,
      "overview": "19-year-old Ben Burns unexpectedly returns home to his family's suburban home on Christmas Eve morning. Ben's mother, Holly, is relieved and welcoming but wary of her son staying clean. Over a turbulent 24 hours, new truths are revealed, and a mother's undying love for her son is tested as she does everything in her power to keep him safe.",
      "release_date": "2018-12-05"
    },
    {
      "vote_count": 110,
      "id": 351044,
      "video": false,
      "vote_average": 6.8,
      "title": "Welcome to Marwen",
      "popularity": 9.485,
      "poster_path": "/o45VIAUYDcVCGuzd43l8Sr5Dfti.jpg",
      "original_language": "en",
      "original_title": "Welcome to Marwen",
      "genre_ids": [
        18,
        35,
        14,
        16
      ],
      "backdrop_path": "/q9hnJ9SzwcF30seRtXEzLd5l1gw.jpg",
      "adult": false,
      "overview": "When a devastating attack shatters Mark Hogancamp and wipes away all memories, no one expected recovery. Putting together pieces from his old and new life, Mark meticulously creates a wondrous town named Marwen where he can heal and be heroic. As he builds an astonishing art installation — a testament to the most powerful women he knows — through his fantasy world, he draws strength to triumph in the real one.",
      "release_date": "2018-12-21"
    },
    {
      "vote_count": 2,
      "id": 471506,
      "video": false,
      "vote_average": 0,
      "title": "Greta",
      "popularity": 9.263,
      "poster_path": "/6Lgk1OGexD0fU8QqDBQHcvEwd1Z.jpg",
      "original_language": "en",
      "original_title": "Greta",
      "genre_ids": [
        53,
        18
      ],
      "backdrop_path": "/2yR4VkzqOtnaj5AOCN8i2HBBzLY.jpg",
      "adult": false,
      "overview": "A young woman returns an elderly widow’s lost purse, leading to an unlikely relationship between the two — until the young woman discovers her elder might not be all that she seems.",
      "release_date": "2019-02-21"
    },
    {
      "vote_count": 47,
      "id": 339380,
      "video": false,
      "vote_average": 7.4,
      "title": "On the Basis of Sex",
      "popularity": 9.128,
      "poster_path": "/izY9Le3QWtu7xkHq7bjJnuE5yGI.jpg",
      "original_language": "en",
      "original_title": "On the Basis of Sex",
      "genre_ids": [
        18,
        36
      ],
      "backdrop_path": "/3lZuky17k1ihovh6mvFyGfgLIi4.jpg",
      "adult": false,
      "overview": "Young lawyer Ruth Bader Ginsburg teams with her husband Marty to bring a groundbreaking case before the U.S. Court of Appeals and overturn a century of gender discrimination.",
      "release_date": "2018-12-25"
    }
  ],
  "page": 2,
  "total_results": 187,
  "dates": {
    "maximum": "2019-03-10",
    "minimum": "2019-02-23"
  },
  "total_pages": 10
} 
